[
    {
        "id": 273,
        "data": [
            {
                "value": 0.27,
                "region_key": "RU-ADY"
            },
            {
                "value": 0.12,
                "region_key": "RU-ALI"
            },
            {
                "value": 2.77,
                "region_key": "RU-BAS"
            },
            {
                "value": 0.58,
                "region_key": "RU-BUR"
            },
            {
                "value": 0.44,
                "region_key": "RU-DAG"
            },
            {
                "value": 0.1,
                "region_key": "RU-ING"
            },
            {
                "value": 0.3,
                "region_key": "RU-KAB"
            },
            {
                "value": 7.31,
                "region_key": "RU-MOW"
            },
            {
                "value": 4.36,
                "region_key": "RU-SPB"
            },
            {
                "value": 0.32,
                "region_key": "RU-SEV"
            },
            {
                "value": 0.11,
                "region_key": "RU-KAI"
            },
            {
                "value": 0.17,
                "region_key": "RU-KAO"
            },
            {
                "value": 0.33,
                "region_key": "RU-KAR"
            },
            {
                "value": 0.51,
                "region_key": "RU-KOM"
            },
            {
                "value": 0.5,
                "region_key": "RU-MAR"
            },
            {
                "value": 0.67,
                "region_key": "RU-MOR"
            },
            {
                "value": 0.34,
                "region_key": "RU-NOR"
            },
            {
                "value": 2.59,
                "region_key": "RU-TAT"
            },
            {
                "value": 0.15,
                "region_key": "RU-TUV"
            },
            {
                "value": 0.99,
                "region_key": "RU-UDM"
            },
            {
                "value": 0.33,
                "region_key": "RU-KHK"
            },
            {
                "value": 0.12,
                "region_key": "RU-CHA"
            },
            {
                "value": 0.95,
                "region_key": "RU-CHV"
            },
            {
                "value": 0.4,
                "region_key": "RU-SAH"
            },
            {
                "value": 1.89,
                "region_key": "RU-ALT"
            },
            {
                "value": 0.4,
                "region_key": "RU-AMU"
            },
            {
                "value": 0.6,
                "region_key": "RU-ARK"
            },
            {
                "value": 0.69,
                "region_key": "RU-AST"
            },
            {
                "value": 1.11,
                "region_key": "RU-BEL"
            },
            {
                "value": 0.91,
                "region_key": "RU-BRY"
            },
            {
                "value": 1.02,
                "region_key": "RU-VLA"
            },
            {
                "value": 1.8,
                "region_key": "RU-VGG"
            },
            {
                "value": 0.84,
                "region_key": "RU-VLG"
            },
            {
                "value": 1.95,
                "region_key": "RU-VOR"
            },
            {
                "value": 0.56,
                "region_key": "RU-IVA"
            },
            {
                "value": 1.7,
                "region_key": "RU-IRK"
            },
            {
                "value": 0.66,
                "region_key": "RU-KAG"
            },
            {
                "value": 0.76,
                "region_key": "RU-KAL"
            },
            {
                "value": 0.19,
                "region_key": "RU-KAM"
            },
            {
                "value": 1.87,
                "region_key": "RU-KEM"
            },
            {
                "value": 0.96,
                "region_key": "RU-KIR"
            },
            {
                "value": 0.45,
                "region_key": "RU-KOS"
            },
            {
                "value": 4.72,
                "region_key": "RU-KRA"
            },
            {
                "value": 1.94,
                "region_key": "RU-KYA"
            },
            {
                "value": 0.67,
                "region_key": "RU-KUG"
            },
            {
                "value": 0.94,
                "region_key": "RU-KUR"
            },
            {
                "value": 1.05,
                "region_key": "RU-LEN"
            },
            {
                "value": 0.98,
                "region_key": "RU-LIP"
            },
            {
                "value": 0.07,
                "region_key": "RU-MAG"
            },
            {
                "value": 5.6,
                "region_key": "RU-MOS"
            },
            {
                "value": 2.76,
                "region_key": "RU-NIZ"
            },
            {
                "value": 0.41,
                "region_key": "RU-NGR"
            },
            {
                "value": 1.98,
                "region_key": "RU-NVS"
            },
            {
                "value": 1.31,
                "region_key": "RU-OMS"
            },
            {
                "value": 1.52,
                "region_key": "RU-ORE"
            },
            {
                "value": 0.62,
                "region_key": "RU-ORL"
            },
            {
                "value": 1.01,
                "region_key": "RU-PNZ"
            },
            {
                "value": 1.21,
                "region_key": "RU-PRI"
            },
            {
                "value": 0.47,
                "region_key": "RU-PSK"
            },
            {
                "value": 3.24,
                "region_key": "RU-ROS"
            },
            {
                "value": 0.85,
                "region_key": "RU-RYA"
            },
            {
                "value": 2.5,
                "region_key": "RU-SAM"
            },
            {
                "value": 1.97,
                "region_key": "RU-SAR"
            },
            {
                "value": 0.36,
                "region_key": "RU-SAK"
            },
            {
                "value": 2.75,
                "region_key": "RU-SVE"
            },
            {
                "value": 0.59,
                "region_key": "RU-SMO"
            },
            {
                "value": 1.77,
                "region_key": "RU-STA"
            },
            {
                "value": 0.78,
                "region_key": "RU-TAM"
            },
            {
                "value": 0.63,
                "region_key": "RU-TOM"
            },
            {
                "value": 1.36,
                "region_key": "RU-TUL"
            },
            {
                "value": 1,
                "region_key": "RU-TYU"
            },
            {
                "value": 1.06,
                "region_key": "RU-ULY"
            },
            {
                "value": 0.69,
                "region_key": "RU-KHA"
            },
            {
                "value": 2.56,
                "region_key": "RU-CHE"
            },
            {
                "value": 0.85,
                "region_key": "RU-YAR"
            },
            {
                "value": 0.07,
                "region_key": "RU-JEW"
            },
            {
                "value": 0.03,
                "region_key": "RU-NEN"
            },
            {
                "value": 0.96,
                "region_key": "RU-KHM"
            },
            {
                "value": 0.02,
                "region_key": "RU-CHU"
            },
            {
                "value": 0.27,
                "region_key": "RU-YAN"
            },
            {
                "value": 0.57,
                "region_key": "RU-ZAB"
            },
            {
                "value": 1.32,
                "region_key": "RU-CR"
            },
            {
                "value": 2.13,
                "region_key": "RU-PER"
            },
            {
                "value": 0.41,
                "region_key": "RU-MUR"
            },
            {
                "value": 0.93,
                "region_key": "RU-TVE"
            }
        ],
        "title": "Доля региона, уп. (%)",
        "options": {
            "mode": "q",
            "scale": [
                "white",
                "red"
            ],
            "steps": 5,
            "style": {
                "color": "#fff",
                "weight": 2,
                "fillOpacity": 0.8
            }
        },
        "description": null
    },
    {
        "id": 274,
        "data": [
            {
                "value": 15,
                "region_key": "RU-ADY"
            },
            {
                "value": 6.7,
                "region_key": "RU-ALI"
            },
            {
                "value": 154.2,
                "region_key": "RU-BAS"
            },
            {
                "value": 32.1,
                "region_key": "RU-BUR"
            },
            {
                "value": 24.6,
                "region_key": "RU-DAG"
            },
            {
                "value": 5.6,
                "region_key": "RU-ING"
            },
            {
                "value": 16.8,
                "region_key": "RU-KAB"
            },
            {
                "value": 407.6,
                "region_key": "RU-MOW"
            },
            {
                "value": 242.9,
                "region_key": "RU-SPB"
            },
            {
                "value": 17.9,
                "region_key": "RU-SEV"
            },
            {
                "value": 6.3,
                "region_key": "RU-KAI"
            },
            {
                "value": 9.7,
                "region_key": "RU-KAO"
            },
            {
                "value": 18.2,
                "region_key": "RU-KAR"
            },
            {
                "value": 28.6,
                "region_key": "RU-KOM"
            },
            {
                "value": 27.8,
                "region_key": "RU-MAR"
            },
            {
                "value": 37.1,
                "region_key": "RU-MOR"
            },
            {
                "value": 19,
                "region_key": "RU-NOR"
            },
            {
                "value": 144.3,
                "region_key": "RU-TAT"
            },
            {
                "value": 8.4,
                "region_key": "RU-TUV"
            },
            {
                "value": 55.1,
                "region_key": "RU-UDM"
            },
            {
                "value": 18.2,
                "region_key": "RU-KHK"
            },
            {
                "value": 6.9,
                "region_key": "RU-CHA"
            },
            {
                "value": 52.8,
                "region_key": "RU-CHV"
            },
            {
                "value": 22.4,
                "region_key": "RU-SAH"
            },
            {
                "value": 105.1,
                "region_key": "RU-ALT"
            },
            {
                "value": 22.3,
                "region_key": "RU-AMU"
            },
            {
                "value": 33.3,
                "region_key": "RU-ARK"
            },
            {
                "value": 38.7,
                "region_key": "RU-AST"
            },
            {
                "value": 61.6,
                "region_key": "RU-BEL"
            },
            {
                "value": 50.6,
                "region_key": "RU-BRY"
            },
            {
                "value": 56.7,
                "region_key": "RU-VLA"
            },
            {
                "value": 100.2,
                "region_key": "RU-VGG"
            },
            {
                "value": 46.6,
                "region_key": "RU-VLG"
            },
            {
                "value": 108.5,
                "region_key": "RU-VOR"
            },
            {
                "value": 31.4,
                "region_key": "RU-IVA"
            },
            {
                "value": 94.5,
                "region_key": "RU-IRK"
            },
            {
                "value": 36.6,
                "region_key": "RU-KAG"
            },
            {
                "value": 42.4,
                "region_key": "RU-KAL"
            },
            {
                "value": 10.6,
                "region_key": "RU-KAM"
            },
            {
                "value": 104.4,
                "region_key": "RU-KEM"
            },
            {
                "value": 53.2,
                "region_key": "RU-KIR"
            },
            {
                "value": 24.8,
                "region_key": "RU-KOS"
            },
            {
                "value": 263,
                "region_key": "RU-KRA"
            },
            {
                "value": 107.9,
                "region_key": "RU-KYA"
            },
            {
                "value": 37.2,
                "region_key": "RU-KUG"
            },
            {
                "value": 52.2,
                "region_key": "RU-KUR"
            },
            {
                "value": 58.8,
                "region_key": "RU-LEN"
            },
            {
                "value": 54.6,
                "region_key": "RU-LIP"
            },
            {
                "value": 4.2,
                "region_key": "RU-MAG"
            },
            {
                "value": 312,
                "region_key": "RU-MOS"
            },
            {
                "value": 153.7,
                "region_key": "RU-NIZ"
            },
            {
                "value": 23.1,
                "region_key": "RU-NGR"
            },
            {
                "value": 110.2,
                "region_key": "RU-NVS"
            },
            {
                "value": 72.8,
                "region_key": "RU-OMS"
            },
            {
                "value": 85,
                "region_key": "RU-ORE"
            },
            {
                "value": 34.5,
                "region_key": "RU-ORL"
            },
            {
                "value": 56.1,
                "region_key": "RU-PNZ"
            },
            {
                "value": 67.7,
                "region_key": "RU-PRI"
            },
            {
                "value": 26.4,
                "region_key": "RU-PSK"
            },
            {
                "value": 180.8,
                "region_key": "RU-ROS"
            },
            {
                "value": 47.2,
                "region_key": "RU-RYA"
            },
            {
                "value": 139.6,
                "region_key": "RU-SAM"
            },
            {
                "value": 109.9,
                "region_key": "RU-SAR"
            },
            {
                "value": 20.3,
                "region_key": "RU-SAK"
            },
            {
                "value": 153.2,
                "region_key": "RU-SVE"
            },
            {
                "value": 32.6,
                "region_key": "RU-SMO"
            },
            {
                "value": 98.6,
                "region_key": "RU-STA"
            },
            {
                "value": 43.4,
                "region_key": "RU-TAM"
            },
            {
                "value": 35.2,
                "region_key": "RU-TOM"
            },
            {
                "value": 76,
                "region_key": "RU-TUL"
            },
            {
                "value": 55.5,
                "region_key": "RU-TYU"
            },
            {
                "value": 59.4,
                "region_key": "RU-ULY"
            },
            {
                "value": 38.4,
                "region_key": "RU-KHA"
            },
            {
                "value": 142.4,
                "region_key": "RU-CHE"
            },
            {
                "value": 47.5,
                "region_key": "RU-YAR"
            },
            {
                "value": 3.8,
                "region_key": "RU-JEW"
            },
            {
                "value": 1.6,
                "region_key": "RU-NEN"
            },
            {
                "value": 53.5,
                "region_key": "RU-KHM"
            },
            {
                "value": 1.4,
                "region_key": "RU-CHU"
            },
            {
                "value": 15.1,
                "region_key": "RU-YAN"
            },
            {
                "value": 31.9,
                "region_key": "RU-ZAB"
            },
            {
                "value": 73.6,
                "region_key": "RU-CR"
            },
            {
                "value": 118.8,
                "region_key": "RU-PER"
            },
            {
                "value": 23,
                "region_key": "RU-MUR"
            },
            {
                "value": 51.9,
                "region_key": "RU-TVE"
            }
        ],
        "title": "Объем, млн уп.",
        "options": {
            "mode": "q",
            "scale": [
                "white",
                "red"
            ],
            "steps": 5,
            "style": {
                "color": "#fff",
                "weight": 2,
                "fillOpacity": 0.8
            }
        },
        "description": null
    },
    {
        "id": 275,
        "data": [
            {
                "value": 57.18,
                "region_key": "RU-ADY"
            },
            {
                "value": 59.66,
                "region_key": "RU-ALI"
            },
            {
                "value": 58.58,
                "region_key": "RU-BAS"
            },
            {
                "value": 64.17,
                "region_key": "RU-BUR"
            },
            {
                "value": 53.33,
                "region_key": "RU-DAG"
            },
            {
                "value": 61.38,
                "region_key": "RU-ING"
            },
            {
                "value": 59.89,
                "region_key": "RU-KAB"
            },
            {
                "value": 35.01,
                "region_key": "RU-MOW"
            },
            {
                "value": 31.59,
                "region_key": "RU-SPB"
            },
            {
                "value": 51.62,
                "region_key": "RU-SEV"
            },
            {
                "value": 60.31,
                "region_key": "RU-KAI"
            },
            {
                "value": 59.48,
                "region_key": "RU-KAO"
            },
            {
                "value": 51.27,
                "region_key": "RU-KAR"
            },
            {
                "value": 50.8,
                "region_key": "RU-KOM"
            },
            {
                "value": 62.85,
                "region_key": "RU-MAR"
            },
            {
                "value": 64.04,
                "region_key": "RU-MOR"
            },
            {
                "value": 57.13,
                "region_key": "RU-NOR"
            },
            {
                "value": 56.23,
                "region_key": "RU-TAT"
            },
            {
                "value": 72.28,
                "region_key": "RU-TUV"
            },
            {
                "value": 50.46,
                "region_key": "RU-UDM"
            },
            {
                "value": 61.26,
                "region_key": "RU-KHK"
            },
            {
                "value": 54.89,
                "region_key": "RU-CHA"
            },
            {
                "value": 64.65,
                "region_key": "RU-CHV"
            },
            {
                "value": 51.8,
                "region_key": "RU-SAH"
            },
            {
                "value": 63.41,
                "region_key": "RU-ALT"
            },
            {
                "value": 54.89,
                "region_key": "RU-AMU"
            },
            {
                "value": 49.23,
                "region_key": "RU-ARK"
            },
            {
                "value": 60.13,
                "region_key": "RU-AST"
            },
            {
                "value": 56.7,
                "region_key": "RU-BEL"
            },
            {
                "value": 58.91,
                "region_key": "RU-BRY"
            },
            {
                "value": 56.73,
                "region_key": "RU-VLA"
            },
            {
                "value": 57.14,
                "region_key": "RU-VGG"
            },
            {
                "value": 61.68,
                "region_key": "RU-VLG"
            },
            {
                "value": 58.64,
                "region_key": "RU-VOR"
            },
            {
                "value": 58.24,
                "region_key": "RU-IVA"
            },
            {
                "value": 56.05,
                "region_key": "RU-IRK"
            },
            {
                "value": 49.86,
                "region_key": "RU-KAG"
            },
            {
                "value": 54.53,
                "region_key": "RU-KAL"
            },
            {
                "value": 44.06,
                "region_key": "RU-KAM"
            },
            {
                "value": 56.6,
                "region_key": "RU-KEM"
            },
            {
                "value": 58.52,
                "region_key": "RU-KIR"
            },
            {
                "value": 57.05,
                "region_key": "RU-KOS"
            },
            {
                "value": 52.36,
                "region_key": "RU-KRA"
            },
            {
                "value": 48.7,
                "region_key": "RU-KYA"
            },
            {
                "value": 66.62,
                "region_key": "RU-KUG"
            },
            {
                "value": 58.09,
                "region_key": "RU-KUR"
            },
            {
                "value": 43.04,
                "region_key": "RU-LEN"
            },
            {
                "value": 60.94,
                "region_key": "RU-LIP"
            },
            {
                "value": 52.13,
                "region_key": "RU-MAG"
            },
            {
                "value": 42.4,
                "region_key": "RU-MOS"
            },
            {
                "value": 56.28,
                "region_key": "RU-NIZ"
            },
            {
                "value": 51.54,
                "region_key": "RU-NGR"
            },
            {
                "value": 47.47,
                "region_key": "RU-NVS"
            },
            {
                "value": 58.02,
                "region_key": "RU-OMS"
            },
            {
                "value": 64.24,
                "region_key": "RU-ORE"
            },
            {
                "value": 58.43,
                "region_key": "RU-ORL"
            },
            {
                "value": 58.55,
                "region_key": "RU-PNZ"
            },
            {
                "value": 47.85,
                "region_key": "RU-PRI"
            },
            {
                "value": 61.13,
                "region_key": "RU-PSK"
            },
            {
                "value": 58.97,
                "region_key": "RU-ROS"
            },
            {
                "value": 52.63,
                "region_key": "RU-RYA"
            },
            {
                "value": 56.04,
                "region_key": "RU-SAM"
            },
            {
                "value": 59.3,
                "region_key": "RU-SAR"
            },
            {
                "value": 50.15,
                "region_key": "RU-SAK"
            },
            {
                "value": 48.9,
                "region_key": "RU-SVE"
            },
            {
                "value": 56.93,
                "region_key": "RU-SMO"
            },
            {
                "value": 55.97,
                "region_key": "RU-STA"
            },
            {
                "value": 65.46,
                "region_key": "RU-TAM"
            },
            {
                "value": 48.67,
                "region_key": "RU-TOM"
            },
            {
                "value": 58.57,
                "region_key": "RU-TUL"
            },
            {
                "value": 49.34,
                "region_key": "RU-TYU"
            },
            {
                "value": 62.25,
                "region_key": "RU-ULY"
            },
            {
                "value": 48.02,
                "region_key": "RU-KHA"
            },
            {
                "value": 55.53,
                "region_key": "RU-CHE"
            },
            {
                "value": 51.27,
                "region_key": "RU-YAR"
            },
            {
                "value": 57.26,
                "region_key": "RU-JEW"
            },
            {
                "value": 47.95,
                "region_key": "RU-NEN"
            },
            {
                "value": 46.3,
                "region_key": "RU-KHM"
            },
            {
                "value": 57.31,
                "region_key": "RU-CHU"
            },
            {
                "value": 39.63,
                "region_key": "RU-YAN"
            },
            {
                "value": 50.75,
                "region_key": "RU-ZAB"
            },
            {
                "value": 54.75,
                "region_key": "RU-CR"
            },
            {
                "value": 63.33,
                "region_key": "RU-PER"
            },
            {
                "value": 44.13,
                "region_key": "RU-MUR"
            },
            {
                "value": 57.49,
                "region_key": "RU-TVE"
            }
        ],
        "title": "Распределение по ценовым сегментам, (%) <100 р. ",
        "options": {
            "mode": "q",
            "scale": [
                "white",
                "red"
            ],
            "steps": 5,
            "style": {
                "color": "#fff",
                "weight": 2,
                "fillOpacity": 0.8
            }
        },
        "description": null
    },
    {
        "id": 276,
        "data": [
            {
                "value": 24.19,
                "region_key": "RU-ADY"
            },
            {
                "value": 14.97,
                "region_key": "RU-ALI"
            },
            {
                "value": 23.15,
                "region_key": "RU-BAS"
            },
            {
                "value": 22.08,
                "region_key": "RU-BUR"
            },
            {
                "value": 22.61,
                "region_key": "RU-DAG"
            },
            {
                "value": 19.15,
                "region_key": "RU-ING"
            },
            {
                "value": 17.47,
                "region_key": "RU-KAB"
            },
            {
                "value": 29.01,
                "region_key": "RU-MOW"
            },
            {
                "value": 31.34,
                "region_key": "RU-SPB"
            },
            {
                "value": 26.15,
                "region_key": "RU-SEV"
            },
            {
                "value": 23.37,
                "region_key": "RU-KAI"
            },
            {
                "value": 19.15,
                "region_key": "RU-KAO"
            },
            {
                "value": 26.78,
                "region_key": "RU-KAR"
            },
            {
                "value": 28.05,
                "region_key": "RU-KOM"
            },
            {
                "value": 22.99,
                "region_key": "RU-MAR"
            },
            {
                "value": 22.11,
                "region_key": "RU-MOR"
            },
            {
                "value": 18.8,
                "region_key": "RU-NOR"
            },
            {
                "value": 25.21,
                "region_key": "RU-TAT"
            },
            {
                "value": 12.08,
                "region_key": "RU-TUV"
            },
            {
                "value": 29.94,
                "region_key": "RU-UDM"
            },
            {
                "value": 15.13,
                "region_key": "RU-KHK"
            },
            {
                "value": 21.07,
                "region_key": "RU-CHA"
            },
            {
                "value": 21.23,
                "region_key": "RU-CHV"
            },
            {
                "value": 23.95,
                "region_key": "RU-SAH"
            },
            {
                "value": 13.94,
                "region_key": "RU-ALT"
            },
            {
                "value": 24.73,
                "region_key": "RU-AMU"
            },
            {
                "value": 28.17,
                "region_key": "RU-ARK"
            },
            {
                "value": 23.83,
                "region_key": "RU-AST"
            },
            {
                "value": 24.38,
                "region_key": "RU-BEL"
            },
            {
                "value": 24.28,
                "region_key": "RU-BRY"
            },
            {
                "value": 25.16,
                "region_key": "RU-VLA"
            },
            {
                "value": 24.99,
                "region_key": "RU-VGG"
            },
            {
                "value": 22,
                "region_key": "RU-VLG"
            },
            {
                "value": 23.73,
                "region_key": "RU-VOR"
            },
            {
                "value": 24.11,
                "region_key": "RU-IVA"
            },
            {
                "value": 18.85,
                "region_key": "RU-IRK"
            },
            {
                "value": 27.3,
                "region_key": "RU-KAG"
            },
            {
                "value": 25.83,
                "region_key": "RU-KAL"
            },
            {
                "value": 26.74,
                "region_key": "RU-KAM"
            },
            {
                "value": 17.8,
                "region_key": "RU-KEM"
            },
            {
                "value": 25.32,
                "region_key": "RU-KIR"
            },
            {
                "value": 25.83,
                "region_key": "RU-KOS"
            },
            {
                "value": 26.7,
                "region_key": "RU-KRA"
            },
            {
                "value": 22.13,
                "region_key": "RU-KYA"
            },
            {
                "value": 12.35,
                "region_key": "RU-KUG"
            },
            {
                "value": 24.47,
                "region_key": "RU-KUR"
            },
            {
                "value": 30.06,
                "region_key": "RU-LEN"
            },
            {
                "value": 23.1,
                "region_key": "RU-LIP"
            },
            {
                "value": 23.52,
                "region_key": "RU-MAG"
            },
            {
                "value": 29.03,
                "region_key": "RU-MOS"
            },
            {
                "value": 24.99,
                "region_key": "RU-NIZ"
            },
            {
                "value": 28.12,
                "region_key": "RU-NGR"
            },
            {
                "value": 23.82,
                "region_key": "RU-NVS"
            },
            {
                "value": 17.8,
                "region_key": "RU-OMS"
            },
            {
                "value": 21.76,
                "region_key": "RU-ORE"
            },
            {
                "value": 25.21,
                "region_key": "RU-ORL"
            },
            {
                "value": 24.47,
                "region_key": "RU-PNZ"
            },
            {
                "value": 26.48,
                "region_key": "RU-PRI"
            },
            {
                "value": 22.59,
                "region_key": "RU-PSK"
            },
            {
                "value": 23.14,
                "region_key": "RU-ROS"
            },
            {
                "value": 27.15,
                "region_key": "RU-RYA"
            },
            {
                "value": 25.22,
                "region_key": "RU-SAM"
            },
            {
                "value": 24.02,
                "region_key": "RU-SAR"
            },
            {
                "value": 25.28,
                "region_key": "RU-SAK"
            },
            {
                "value": 22.25,
                "region_key": "RU-SVE"
            },
            {
                "value": 25.01,
                "region_key": "RU-SMO"
            },
            {
                "value": 19.09,
                "region_key": "RU-STA"
            },
            {
                "value": 20.46,
                "region_key": "RU-TAM"
            },
            {
                "value": 23.03,
                "region_key": "RU-TOM"
            },
            {
                "value": 24.31,
                "region_key": "RU-TUL"
            },
            {
                "value": 22.64,
                "region_key": "RU-TYU"
            },
            {
                "value": 23.42,
                "region_key": "RU-ULY"
            },
            {
                "value": 27.03,
                "region_key": "RU-KHA"
            },
            {
                "value": 19.12,
                "region_key": "RU-CHE"
            },
            {
                "value": 27.36,
                "region_key": "RU-YAR"
            },
            {
                "value": 24.13,
                "region_key": "RU-JEW"
            },
            {
                "value": 28.16,
                "region_key": "RU-NEN"
            },
            {
                "value": 25.06,
                "region_key": "RU-KHM"
            },
            {
                "value": 19.79,
                "region_key": "RU-CHU"
            },
            {
                "value": 30.84,
                "region_key": "RU-YAN"
            },
            {
                "value": 27.96,
                "region_key": "RU-ZAB"
            },
            {
                "value": 25.64,
                "region_key": "RU-CR"
            },
            {
                "value": 21.24,
                "region_key": "RU-PER"
            },
            {
                "value": 29.74,
                "region_key": "RU-MUR"
            },
            {
                "value": 24.63,
                "region_key": "RU-TVE"
            }
        ],
        "title": "Распределение по ценовым сегментам, (%) 100-300 р.",
        "options": {
            "mode": "q",
            "scale": [
                "white",
                "red"
            ],
            "steps": 5,
            "style": {
                "color": "#fff",
                "weight": 2,
                "fillOpacity": 0.8
            }
        },
        "description": null
    },
    {
        "id": 277,
        "data": [
            {
                "value": 18.62,
                "region_key": "RU-ADY"
            },
            {
                "value": 25.36,
                "region_key": "RU-ALI"
            },
            {
                "value": 18.28,
                "region_key": "RU-BAS"
            },
            {
                "value": 13.75,
                "region_key": "RU-BUR"
            },
            {
                "value": 24.06,
                "region_key": "RU-DAG"
            },
            {
                "value": 19.47,
                "region_key": "RU-ING"
            },
            {
                "value": 22.65,
                "region_key": "RU-KAB"
            },
            {
                "value": 35.98,
                "region_key": "RU-MOW"
            },
            {
                "value": 37.06,
                "region_key": "RU-SPB"
            },
            {
                "value": 22.23,
                "region_key": "RU-SEV"
            },
            {
                "value": 16.32,
                "region_key": "RU-KAI"
            },
            {
                "value": 21.37,
                "region_key": "RU-KAO"
            },
            {
                "value": 21.95,
                "region_key": "RU-KAR"
            },
            {
                "value": 21.15,
                "region_key": "RU-KOM"
            },
            {
                "value": 14.16,
                "region_key": "RU-MAR"
            },
            {
                "value": 13.85,
                "region_key": "RU-MOR"
            },
            {
                "value": 24.06,
                "region_key": "RU-NOR"
            },
            {
                "value": 18.56,
                "region_key": "RU-TAT"
            },
            {
                "value": 15.64,
                "region_key": "RU-TUV"
            },
            {
                "value": 19.6,
                "region_key": "RU-UDM"
            },
            {
                "value": 23.61,
                "region_key": "RU-KHK"
            },
            {
                "value": 24.04,
                "region_key": "RU-CHA"
            },
            {
                "value": 14.12,
                "region_key": "RU-CHV"
            },
            {
                "value": 24.25,
                "region_key": "RU-SAH"
            },
            {
                "value": 22.65,
                "region_key": "RU-ALT"
            },
            {
                "value": 20.38,
                "region_key": "RU-AMU"
            },
            {
                "value": 22.6,
                "region_key": "RU-ARK"
            },
            {
                "value": 16.04,
                "region_key": "RU-AST"
            },
            {
                "value": 18.92,
                "region_key": "RU-BEL"
            },
            {
                "value": 16.81,
                "region_key": "RU-BRY"
            },
            {
                "value": 18.12,
                "region_key": "RU-VLA"
            },
            {
                "value": 17.87,
                "region_key": "RU-VGG"
            },
            {
                "value": 16.33,
                "region_key": "RU-VLG"
            },
            {
                "value": 17.63,
                "region_key": "RU-VOR"
            },
            {
                "value": 17.66,
                "region_key": "RU-IVA"
            },
            {
                "value": 25.1,
                "region_key": "RU-IRK"
            },
            {
                "value": 22.84,
                "region_key": "RU-KAG"
            },
            {
                "value": 19.65,
                "region_key": "RU-KAL"
            },
            {
                "value": 29.2,
                "region_key": "RU-KAM"
            },
            {
                "value": 25.6,
                "region_key": "RU-KEM"
            },
            {
                "value": 16.16,
                "region_key": "RU-KIR"
            },
            {
                "value": 17.12,
                "region_key": "RU-KOS"
            },
            {
                "value": 20.94,
                "region_key": "RU-KRA"
            },
            {
                "value": 29.17,
                "region_key": "RU-KYA"
            },
            {
                "value": 21.03,
                "region_key": "RU-KUG"
            },
            {
                "value": 17.44,
                "region_key": "RU-KUR"
            },
            {
                "value": 26.91,
                "region_key": "RU-LEN"
            },
            {
                "value": 15.96,
                "region_key": "RU-LIP"
            },
            {
                "value": 24.34,
                "region_key": "RU-MAG"
            },
            {
                "value": 28.57,
                "region_key": "RU-MOS"
            },
            {
                "value": 18.73,
                "region_key": "RU-NIZ"
            },
            {
                "value": 20.34,
                "region_key": "RU-NGR"
            },
            {
                "value": 28.71,
                "region_key": "RU-NVS"
            },
            {
                "value": 24.17,
                "region_key": "RU-OMS"
            },
            {
                "value": 14.01,
                "region_key": "RU-ORE"
            },
            {
                "value": 16.36,
                "region_key": "RU-ORL"
            },
            {
                "value": 16.98,
                "region_key": "RU-PNZ"
            },
            {
                "value": 25.66,
                "region_key": "RU-PRI"
            },
            {
                "value": 16.28,
                "region_key": "RU-PSK"
            },
            {
                "value": 17.89,
                "region_key": "RU-ROS"
            },
            {
                "value": 20.22,
                "region_key": "RU-RYA"
            },
            {
                "value": 18.74,
                "region_key": "RU-SAM"
            },
            {
                "value": 16.68,
                "region_key": "RU-SAR"
            },
            {
                "value": 24.57,
                "region_key": "RU-SAK"
            },
            {
                "value": 28.86,
                "region_key": "RU-SVE"
            },
            {
                "value": 18.06,
                "region_key": "RU-SMO"
            },
            {
                "value": 24.94,
                "region_key": "RU-STA"
            },
            {
                "value": 14.07,
                "region_key": "RU-TAM"
            },
            {
                "value": 28.3,
                "region_key": "RU-TOM"
            },
            {
                "value": 17.12,
                "region_key": "RU-TUL"
            },
            {
                "value": 28.02,
                "region_key": "RU-TYU"
            },
            {
                "value": 14.33,
                "region_key": "RU-ULY"
            },
            {
                "value": 24.95,
                "region_key": "RU-KHA"
            },
            {
                "value": 25.35,
                "region_key": "RU-CHE"
            },
            {
                "value": 21.37,
                "region_key": "RU-YAR"
            },
            {
                "value": 18.62,
                "region_key": "RU-JEW"
            },
            {
                "value": 23.89,
                "region_key": "RU-NEN"
            },
            {
                "value": 28.64,
                "region_key": "RU-KHM"
            },
            {
                "value": 22.9,
                "region_key": "RU-CHU"
            },
            {
                "value": 29.54,
                "region_key": "RU-YAN"
            },
            {
                "value": 21.3,
                "region_key": "RU-ZAB"
            },
            {
                "value": 19.61,
                "region_key": "RU-CR"
            },
            {
                "value": 15.43,
                "region_key": "RU-PER"
            },
            {
                "value": 26.13,
                "region_key": "RU-MUR"
            },
            {
                "value": 17.89,
                "region_key": "RU-TVE"
            }
        ],
        "title": "Распределение по ценовым сегментам, (%) >100 р. ",
        "options": {
            "mode": "q",
            "scale": [
                "white",
                "red"
            ],
            "steps": 5,
            "style": {
                "color": "#fff",
                "weight": 2,
                "fillOpacity": 0.8
            }
        },
        "description": null
    },
    {
        "id": 278,
        "data": [
            {
                "value": 1.6,
                "region_key": "RU-ADY"
            },
            {
                "value": 0.95,
                "region_key": "RU-ALI"
            },
            {
                "value": 14.04,
                "region_key": "RU-BAS"
            },
            {
                "value": 3.79,
                "region_key": "RU-BUR"
            },
            {
                "value": 5.3,
                "region_key": "RU-DAG"
            },
            {
                "value": 0.43,
                "region_key": "RU-ING"
            },
            {
                "value": 1.86,
                "region_key": "RU-KAB"
            },
            {
                "value": 100,
                "region_key": "RU-MOW"
            },
            {
                "value": 40.17,
                "region_key": "RU-SPB"
            },
            {
                "value": 0.81,
                "region_key": "RU-SEV"
            },
            {
                "value": 0.75,
                "region_key": "RU-KAI"
            },
            {
                "value": 0.23,
                "region_key": "RU-KAO"
            },
            {
                "value": 3.99,
                "region_key": "RU-KAR"
            },
            {
                "value": 4.19,
                "region_key": "RU-KOM"
            },
            {
                "value": 3.43,
                "region_key": "RU-MAR"
            },
            {
                "value": 2.19,
                "region_key": "RU-MOR"
            },
            {
                "value": 18.43,
                "region_key": "RU-TAT"
            },
            {
                "value": 0.6,
                "region_key": "RU-TUV"
            },
            {
                "value": 7.56,
                "region_key": "RU-UDM"
            },
            {
                "value": 3.27,
                "region_key": "RU-KHK"
            },
            {
                "value": 0.47,
                "region_key": "RU-CHA"
            },
            {
                "value": 4.11,
                "region_key": "RU-CHV"
            },
            {
                "value": 3.23,
                "region_key": "RU-SAH"
            },
            {
                "value": 8.59,
                "region_key": "RU-ALT"
            },
            {
                "value": 4.13,
                "region_key": "RU-AMU"
            },
            {
                "value": 5.67,
                "region_key": "RU-ARK"
            },
            {
                "value": 3.04,
                "region_key": "RU-AST"
            },
            {
                "value": 6.64,
                "region_key": "RU-BEL"
            },
            {
                "value": 4.12,
                "region_key": "RU-BRY"
            },
            {
                "value": 7.89,
                "region_key": "RU-VLA"
            },
            {
                "value": 7.68,
                "region_key": "RU-VGG"
            },
            {
                "value": 6.48,
                "region_key": "RU-VLG"
            },
            {
                "value": 10.6,
                "region_key": "RU-VOR"
            },
            {
                "value": 4.71,
                "region_key": "RU-IVA"
            },
            {
                "value": 11.82,
                "region_key": "RU-IRK"
            },
            {
                "value": 7.12,
                "region_key": "RU-KAG"
            },
            {
                "value": 4.71,
                "region_key": "RU-KAL"
            },
            {
                "value": 2.47,
                "region_key": "RU-KAM"
            },
            {
                "value": 13.1,
                "region_key": "RU-KEM"
            },
            {
                "value": 5.84,
                "region_key": "RU-KIR"
            },
            {
                "value": 3.09,
                "region_key": "RU-KOS"
            },
            {
                "value": 36.05,
                "region_key": "RU-KRA"
            },
            {
                "value": 15.85,
                "region_key": "RU-KYA"
            },
            {
                "value": 3.15,
                "region_key": "RU-KUG"
            },
            {
                "value": 3.96,
                "region_key": "RU-KUR"
            },
            {
                "value": 9.13,
                "region_key": "RU-LEN"
            },
            {
                "value": 4.53,
                "region_key": "RU-LIP"
            },
            {
                "value": 0.73,
                "region_key": "RU-MAG"
            },
            {
                "value": 60.91,
                "region_key": "RU-MOS"
            },
            {
                "value": 16.86,
                "region_key": "RU-NIZ"
            },
            {
                "value": 3.12,
                "region_key": "RU-NGR"
            },
            {
                "value": 21.17,
                "region_key": "RU-NVS"
            },
            {
                "value": 9.13,
                "region_key": "RU-OMS"
            },
            {
                "value": 5.14,
                "region_key": "RU-ORE"
            },
            {
                "value": 3.27,
                "region_key": "RU-ORL"
            },
            {
                "value": 4.69,
                "region_key": "RU-PNZ"
            },
            {
                "value": 10.39,
                "region_key": "RU-PRI"
            },
            {
                "value": 3.27,
                "region_key": "RU-PSK"
            },
            {
                "value": 16.78,
                "region_key": "RU-ROS"
            },
            {
                "value": 6.31,
                "region_key": "RU-RYA"
            },
            {
                "value": 17.9,
                "region_key": "RU-SAM"
            },
            {
                "value": 8.21,
                "region_key": "RU-SAR"
            },
            {
                "value": 2.66,
                "region_key": "RU-SAK"
            },
            {
                "value": 29.09,
                "region_key": "RU-SVE"
            },
            {
                "value": 4.77,
                "region_key": "RU-SMO"
            },
            {
                "value": 10.19,
                "region_key": "RU-STA"
            },
            {
                "value": 3.66,
                "region_key": "RU-TAM"
            },
            {
                "value": 5.8,
                "region_key": "RU-TOM"
            },
            {
                "value": 7.63,
                "region_key": "RU-TUL"
            },
            {
                "value": 18.56,
                "region_key": "RU-TYU"
            },
            {
                "value": 4.45,
                "region_key": "RU-ULY"
            },
            {
                "value": 6.93,
                "region_key": "RU-KHA"
            },
            {
                "value": 16.61,
                "region_key": "RU-CHE"
            },
            {
                "value": 8.8,
                "region_key": "RU-YAR"
            },
            {
                "value": 0.66,
                "region_key": "RU-JEW"
            },
            {
                "value": 2.96,
                "region_key": "RU-ZAB"
            },
            {
                "value": 6.46,
                "region_key": "RU-CR"
            },
            {
                "value": 13.28,
                "region_key": "RU-PER"
            },
            {
                "value": 5.02,
                "region_key": "RU-MUR"
            },
            {
                "value": 5.22,
                "region_key": "RU-TVE"
            }
        ],
        "title": "Коэффициент влияния спортивных объектов",
        "options": {
            "mode": "q",
            "scale": [
                "white",
                "red"
            ],
            "steps": 5,
            "style": {
                "color": "#fff",
                "weight": 2,
                "fillOpacity": 0.8
            }
        },
        "description": null
    }
]